<svg xmlns="http://www.w3.org/2000/svg" viewBox="0 0 26.683 32.593">
  <defs>
    <style>
      .cls-1 {
        fill: none;
        stroke: #525252;
        stroke-miterlimit: 10;
        stroke-width: 5px;
      }
    </style>
  </defs>
  <path id="Path_2" data-name="Path 2" class="cls-1" d="M1.8,19.077l9.275,9.275L24.472,1.1" transform="translate(-0.032 0.003)"/>
</svg>
